module gitlab.com/narkoleptik/demo

go 1.18

require (
	github.com/hajimehoshi/ebiten/v2 v2.3.7
	golang.org/x/image v0.0.0-20220722155232-062f8c9fd539
)

require (
	github.com/go-gl/glfw/v3.3/glfw v0.0.0-20220712193148-63cf1f4ef61f // indirect
	github.com/gofrs/flock v0.8.1 // indirect
	github.com/hajimehoshi/oto/v2 v2.2.0 // indirect
	github.com/jezek/xgb v1.0.1 // indirect
	github.com/tinne26/etxt v0.0.5 // indirect
	golang.org/x/exp v0.0.0-20190731235908-ec7cb31e5a56 // indirect
	golang.org/x/exp/shiny v0.0.0-20220722155223-a9213eeb770e // indirect
	golang.org/x/mobile v0.0.0-20220722155234-aaac322e2105 // indirect
	golang.org/x/sync v0.0.0-20220722155255-886fb9371eb4 // indirect
	golang.org/x/sys v0.0.0-20220727055044-e65921a090b8 // indirect
	golang.org/x/text v0.3.7 // indirect
)
